start

07-06-2017 15:22:16   TiCo:0 ,
07-06-2017 15:23:44   TiCo:0 ,
07-06-2017 15:27:18   TiCo:0 ,
07-06-2017 15:29:30   TiCo:0 ,
07-06-2017 15:29:44   TiCo:0 ,
07-06-2017 15:31:06   TiCo:0 ,
07-06-2017 15:34:05   TiCo:0 ,
07-06-2017 15:34:15   TiCo:0 ,
07-06-2017 16:10:46   TiCo:0 ,
07-06-2017 16:10:57   TiCo:0 ,
07-06-2017 16:11:05   TiCo:0 ,
07-06-2017 16:13:32   TiCo:0 ,
07-06-2017 16:13:47   TiCo:0 ,
08-06-2017 11:33:08   TiCo:0 ,
08-06-2017 11:33:33   TiCo:0 ,
08-06-2017 11:33:43   TiCo:0 ,
08-06-2017 13:28:52   TiCo:0 ,
08-06-2017 13:29:13   TiCo:0 ,
08-06-2017 13:29:38   TiCo:0 ,
08-06-2017 14:03:46   TiCo:0 ,
08-06-2017 14:04:06   TiCo:0 ,
08-06-2017 14:54:54   TiCo:0 ,
08-06-2017 14:55:04   TiCo:0 ,
08-06-2017 14:58:04   TiCo:0 ,
08-06-2017 15:00:30   TiCo:0 ,
08-06-2017 15:00:42   TiCo:0 ,
08-06-2017 15:35:54   TiCo:0 ,
08-06-2017 15:36:10   TiCo:0 ,
08-06-2017 15:36:24   TiCo:0 ,
08-06-2017 15:46:06   TiCo:0 ,
08-06-2017 15:46:08   TiCo:0 ,
08-06-2017 15:52:35   TiCo:0 ,
13-06-2017 13:36:14   TiCo:0 ,
13-06-2017 14:08:12   TiCo:0 ,
13-06-2017 14:18:16   TiCo:0 ,
13-06-2017 14:20:20   TiCo:0 ,
14-06-2017 13:00:56   TiCo:0 ,
14-06-2017 13:01:14   TiCo:0 ,
14-06-2017 13:02:11   TiCo:0 ,
14-06-2017 13:02:38   TiCo:0 ,
14-06-2017 13:03:59   TiCo:0 ,
16-06-2017 10:14:55   TiCo:0 ,
16-06-2017 10:15:12   TiCo:0 ,
24-06-2017 11:30:20   TiCo:0 ,
24-06-2017 12:42:26   TiCo:0 ,
24-06-2017 13:25:26   TiCo:0 ,
26-06-2017 15:17:18   TiCo:0 ,
26-06-2017 15:17:50   TiCo:0 ,
27-06-2017 09:20:22   TiCo:0 ,
28-06-2017 09:01:29   TiCo:0 ,
06-09-2017 10:31:55   
